-------------------------------------------------------------------------------
Test set: catapiv2.catapiv2.AppTest
-------------------------------------------------------------------------------
Tests run: 1, Failures: 0, Errors: 0, Skipped: 0, Time elapsed: 0.01 s - in catapiv2.catapiv2.AppTest
